<?xml version="1.0" encoding="UTF-8" standalone="no"?>
<svg width="16px" height="34px" viewBox="0 0 16 34" version="1.1" xmlns="http://www.w3.org/2000/svg" xmlns:xlink="http://www.w3.org/1999/xlink" xmlns:sketch="http://www.bohemiancoding.com/sketch/ns">
    <!-- Generator: Sketch 3.4.4 (17249) - http://www.bohemiancoding.com/sketch -->
    <title>Facebook</title>
    <desc>Created with Sketch.</desc>
    <defs></defs>
    <g id="V1" stroke="none" stroke-width="1" fill="none" fill-rule="evenodd" sketch:type="MSPage">
        <g id="301-Speakers-Profile" sketch:type="MSArtboardGroup" transform="translate(-162.000000, -637.000000)" fill="#000000">
            <g id="Social" sketch:type="MSLayerGroup" transform="translate(119.000000, 601.000000)">
                <g id="Button-+-Facebook" sketch:type="MSShapeGroup">
                    <path d="M53.653,69.985 L46.561,69.985 L46.561,52.993 L43.017,52.993 L43.017,47.135 L46.561,47.135 L46.561,43.62 C46.561,38.844 48.562,36 54.246,36 L58.979,36 L58.979,41.858 L56.022,41.858 C53.809,41.858 53.662,42.677 53.662,44.204 L53.654,47.135 L59.014,47.135 L58.386,52.993 L53.654,52.993 L53.654,69.985 L53.653,69.985 Z" id="Facebook"></path>
                </g>
            </g>
        </g>
    </g>
</svg>