<?xml version="1.0" encoding="UTF-8" standalone="no"?>
<svg width="32px" height="23px" viewBox="0 0 32 23" version="1.1" xmlns="http://www.w3.org/2000/svg" xmlns:xlink="http://www.w3.org/1999/xlink" xmlns:sketch="http://www.bohemiancoding.com/sketch/ns">
    <!-- Generator: Sketch 3.4.4 (17249) - http://www.bohemiancoding.com/sketch -->
    <title>messages</title>
    <desc>Created with Sketch.</desc>
    <defs></defs>
    <g id="Page-1" stroke="none" stroke-width="1" fill="none" fill-rule="evenodd" sketch:type="MSPage">
        <g id="14-Menu" sketch:type="MSArtboardGroup" transform="translate(-38.000000, -767.000000)" fill="#6A6F7B">
            <g id="Main" sketch:type="MSLayerGroup">
                <g id="Menu-Copy" transform="translate(0.000000, 430.000000)" sketch:type="MSShapeGroup">
                    <g id="Menu" transform="translate(38.000000, 134.000000)">
                        <g id="Messages" transform="translate(0.000000, 200.000000)">
                            <path d="M20.497,3 L14.504,3 C8.152,3 3,8.149 3,14.5 L3,20 L0,23 L0,26 L20.497,26 C26.849,26 32,20.851 32,14.5 C32,8.147 26.85,3 20.497,3 L20.497,3 Z M11.5,16 C10.672,16 10,15.328 10,14.5 C10,13.672 10.672,13 11.5,13 C12.329,13 13,13.672 13,14.5 C13,15.328 12.329,16 11.5,16 L11.5,16 Z M17.5,16 C16.672,16 16,15.328 16,14.5 C16,13.672 16.672,13 17.5,13 C18.329,13 19,13.672 19,14.5 C19,15.328 18.329,16 17.5,16 L17.5,16 Z M23.5,16 C22.672,16 22,15.328 22,14.5 C22,13.672 22.672,13 23.5,13 C24.329,13 25,13.672 25,14.5 C25,15.328 24.329,16 23.5,16 L23.5,16 Z" id="messages"></path>
                        </g>
                    </g>
                </g>
            </g>
        </g>
    </g>
</svg>