<?xml version="1.0" encoding="UTF-8" standalone="no"?>
<svg width="7px" height="31px" viewBox="0 0 7 31" version="1.1" xmlns="http://www.w3.org/2000/svg" xmlns:xlink="http://www.w3.org/1999/xlink" xmlns:sketch="http://www.bohemiancoding.com/sketch/ns">
    <!-- Generator: Sketch 3.4.4 (17249) - http://www.bohemiancoding.com/sketch -->
    <title>more</title>
    <desc>Created with Sketch.</desc>
    <defs></defs>
    <g id="Page-1" stroke="none" stroke-width="1" fill="none" fill-rule="evenodd" sketch:type="MSPage">
        <g id="11-Profile" sketch:type="MSArtboardGroup" transform="translate(-656.000000, -400.000000)" fill="#6A6F7B">
            <g id="Main" sketch:type="MSLayerGroup" transform="translate(20.000000, 194.000000)">
                <g id="menu" transform="translate(45.000000, 206.000000)" sketch:type="MSShapeGroup">
                    <g id="Icons/More-Copy" transform="translate(591.000000, 0.000000)">
                        <path d="M3.5,7 C5.43299662,7 7,5.43299662 7,3.5 C7,1.56700338 5.43299662,0 3.5,0 C1.56700338,0 0,1.56700338 0,3.5 C0,5.43299662 1.56700338,7 3.5,7 Z M3.5,19 C5.43299662,19 7,17.4329966 7,15.5 C7,13.5670034 5.43299662,12 3.5,12 C1.56700338,12 0,13.5670034 0,15.5 C0,17.4329966 1.56700338,19 3.5,19 Z M3.5,31 C5.43299662,31 7,29.4329966 7,27.5 C7,25.5670034 5.43299662,24 3.5,24 C1.56700338,24 0,25.5670034 0,27.5 C0,29.4329966 1.56700338,31 3.5,31 Z" id="more"></path>
                    </g>
                </g>
            </g>
        </g>
    </g>
</svg>