<svg viewBox="17.176 87.749 69.149 125" enable-background="new 17.176 87.749 69.149 100" xml:space="preserve">
  <path d="M56.938,165.01l-15.426-8.91l-13.697,24.069l-10.373,7.58l1.729-12.5l13.697-24.202l-15.692-9.176  c0,0,4.123-9.574,11.968-10.904c2.792-0.665,9.575-1.596,10.638-2.925c1.064-1.862,13.166-20.479,13.963-22.208  c1.329-1.861-2.926-7.181-3.591-10.505c-0.399-2.394,1.33-4.654,2.261-5.984c0.665-1.063,0.798-1.596,0.798-1.596l33.111,19.149  c0,0,0,0.266-0.798,1.462c-0.665,1.33-1.596,4.123-4.122,4.654c-3.191,1.596-9.841,0.665-10.904,2.261  c-1.197,1.862-11.702,21.41-12.633,23.139c-0.798,1.596,1.861,8.511,2.526,10.638C63.985,156.233,56.938,165.01,56.938,165.01z"/>
</svg>
