<?xml version="1.0" encoding="UTF-8" standalone="no"?>
<svg width="27px" height="28px" viewBox="0 0 27 28" version="1.1" xmlns="http://www.w3.org/2000/svg" xmlns:xlink="http://www.w3.org/1999/xlink" xmlns:sketch="http://www.bohemiancoding.com/sketch/ns">
    <!-- Generator: Sketch 3.4.4 (17249) - http://www.bohemiancoding.com/sketch -->
    <title>settings</title>
    <desc>Created with Sketch.</desc>
    <defs></defs>
    <g id="Page-1" stroke="none" stroke-width="1" fill="none" fill-rule="evenodd" sketch:type="MSPage">
        <g id="1-Profile" sketch:type="MSArtboardGroup" transform="translate(-698.000000, -69.000000)" fill="#6A6F7B">
            <g id="Navigation-Bars/2" sketch:type="MSLayerGroup">
                <path d="M724.644,87.287 L723.026,85.615 C723.215,84.772 723.322,83.899 723.322,83 C723.322,82.101 723.214,81.228 723.026,80.385 L724.644,78.713 C724.026,76.797 722.999,75.068 721.677,73.611 L719.425,74.175 C718.141,72.995 716.61,72.082 714.907,71.548 L714.27,69.319 C713.319,69.114 712.334,69 711.322,69 C710.31,69 709.325,69.114 708.374,69.318 L707.737,71.548 C706.034,72.082 704.503,72.995 703.219,74.175 L700.967,73.611 C699.644,75.068 698.618,76.797 698,78.712 L699.618,80.385 C699.429,81.228 699.322,82.101 699.322,83 C699.322,83.899 699.429,84.772 699.618,85.615 L698,87.287 C698.618,89.203 699.644,90.931 700.967,92.389 L703.219,91.825 C704.502,93.005 706.034,93.918 707.737,94.452 L708.374,96.682 C709.325,96.886 710.31,97 711.322,97 C712.334,97 713.319,96.886 714.27,96.682 L714.907,94.452 C716.61,93.918 718.141,93.005 719.425,91.825 L721.677,92.389 C723,90.931 724.026,89.203 724.644,87.287 Z M711.322,91 C706.911,91 703.322,87.411 703.322,83 C703.322,78.589 706.911,75 711.322,75 C715.733,75 719.322,78.589 719.322,83 C719.322,87.411 715.733,91 711.322,91 L711.322,91 Z" id="settings" sketch:type="MSShapeGroup"></path>
            </g>
        </g>
    </g>
</svg>